^C:\USERS\MAGSHIMIM\SOURCE\REPOS\LESSON9\EX2\MAIN.CPP
/c /ZI /nologo /W3 /WX- /diagnostics:classic /sdl /Od /Oy- /D _MBCS /Gm- /EHsc /RTC1 /MDd /GS /fp:precise /permissive- /Zc:wchar_t /Zc:forScope /Zc:inline /Fo"DEBUG\\" /Fd"DEBUG\VC141.PDB" /Gd /TP /analyze- /FC C:\USERS\MAGSHIMIM\SOURCE\REPOS\LESSON9\EX2\MAIN.CPP
^C:\USERS\MAGSHIMIM\SOURCE\REPOS\LESSON9\EX2\TESTCLASS.CPP
/c /ZI /nologo /W3 /WX- /diagnostics:classic /sdl /Od /Oy- /D _MBCS /Gm- /EHsc /RTC1 /MDd /GS /fp:precise /permissive- /Zc:wchar_t /Zc:forScope /Zc:inline /Fo"DEBUG\\" /Fd"DEBUG\VC141.PDB" /Gd /TP /analyze- /FC C:\USERS\MAGSHIMIM\SOURCE\REPOS\LESSON9\EX2\TESTCLASS.CPP
