^C:\USERS\MAGSHIMIM\SOURCE\REPOS\LESSON6\CLASSWORKEX1\DEBUG\MAIN.OBJ
C:\USERS\MAGSHIMIM\SOURCE\REPOS\LESSON6\DEBUG\CLASSWORKEX1.EXE
C:\USERS\MAGSHIMIM\SOURCE\REPOS\LESSON6\DEBUG\CLASSWORKEX1.ILK
C:\USERS\MAGSHIMIM\SOURCE\REPOS\LESSON6\DEBUG\CLASSWORKEX1.PDB
