^C:\USERS\MAGSHIMIM\SOURCE\REPOS\LESSON6\HOMEWORKEX2\DEBUG\CIRCLE.OBJ|C:\USERS\MAGSHIMIM\SOURCE\REPOS\LESSON6\HOMEWORKEX2\DEBUG\HEXAGON.OBJ|C:\USERS\MAGSHIMIM\SOURCE\REPOS\LESSON6\HOMEWORKEX2\DEBUG\MAIN.OBJ|C:\USERS\MAGSHIMIM\SOURCE\REPOS\LESSON6\HOMEWORKEX2\DEBUG\MATHUTILS.OBJ|C:\USERS\MAGSHIMIM\SOURCE\REPOS\LESSON6\HOMEWORKEX2\DEBUG\PARALLELOGRAM.OBJ|C:\USERS\MAGSHIMIM\SOURCE\REPOS\LESSON6\HOMEWORKEX2\DEBUG\PENTAGON.OBJ|C:\USERS\MAGSHIMIM\SOURCE\REPOS\LESSON6\HOMEWORKEX2\DEBUG\QUADRILATERAL.OBJ|C:\USERS\MAGSHIMIM\SOURCE\REPOS\LESSON6\HOMEWORKEX2\DEBUG\RECTANGLE.OBJ|C:\USERS\MAGSHIMIM\SOURCE\REPOS\LESSON6\HOMEWORKEX2\DEBUG\SHAPE.OBJ
C:\USERS\MAGSHIMIM\SOURCE\REPOS\LESSON6\DEBUG\HOMEWORKEX2.EXE
C:\USERS\MAGSHIMIM\SOURCE\REPOS\LESSON6\DEBUG\HOMEWORKEX2.ILK
C:\USERS\MAGSHIMIM\SOURCE\REPOS\LESSON6\DEBUG\HOMEWORKEX2.PDB
