^C:\USERS\MAGSHIMIM\SOURCE\REPOS\LESSON1\2\DEBUG\LINKEDLIST.OBJ|C:\USERS\MAGSHIMIM\SOURCE\REPOS\LESSON1\2\DEBUG\MAIN.OBJ|C:\USERS\MAGSHIMIM\SOURCE\REPOS\LESSON1\2\DEBUG\STACK.OBJ|C:\USERS\MAGSHIMIM\SOURCE\REPOS\LESSON1\2\DEBUG\UTILS.OBJ
C:\USERS\MAGSHIMIM\SOURCE\REPOS\LESSON1\DEBUG\2.EXE
C:\USERS\MAGSHIMIM\SOURCE\REPOS\LESSON1\DEBUG\2.ILK
C:\USERS\MAGSHIMIM\SOURCE\REPOS\LESSON1\DEBUG\2.PDB
