^C:\USERS\MAGSHIMIM\SOURCE\REPOS\EX3\EX3\DEBUG\AMINOACID.OBJ|C:\USERS\MAGSHIMIM\SOURCE\REPOS\EX3\EX3\DEBUG\CELL.OBJ|C:\USERS\MAGSHIMIM\SOURCE\REPOS\EX3\EX3\DEBUG\MITOCHONDRION.OBJ|C:\USERS\MAGSHIMIM\SOURCE\REPOS\EX3\EX3\DEBUG\NUCLEUS.OBJ|C:\USERS\MAGSHIMIM\SOURCE\REPOS\EX3\EX3\DEBUG\PROTEIN.OBJ|C:\USERS\MAGSHIMIM\SOURCE\REPOS\EX3\EX3\DEBUG\RIBOSOME.OBJ|C:\USERS\MAGSHIMIM\SOURCE\REPOS\EX3\EX3\DEBUG\TESTER.OBJ
C:\USERS\MAGSHIMIM\SOURCE\REPOS\EX3\DEBUG\EX3.EXE
C:\USERS\MAGSHIMIM\SOURCE\REPOS\EX3\DEBUG\EX3.ILK
C:\USERS\MAGSHIMIM\SOURCE\REPOS\EX3\DEBUG\EX3.PDB
